Power Law
…
Stoffel

## # A tibble: 80 x 5
##    Gender Expose Type        Ages      CR
##    <chr>  <chr>  <chr>       <chr>  <dbl>
##  1 M      POP    Colorectal  30    0.0100
##  2 M      MMR    Colorectal  30    1.85  
##  3 M      MLH1   Colorectal  30    2.83  
##  4 M      MSH2   Colorectal  30    1.43  
##  5 F      POP    Colorectal  30    0.0100
##  6 F      MMR    Colorectal  30    0.910 
##  7 F      MLH1   Colorectal  30    1.30  
##  8 F      MSH2   Colorectal  30    0.710 
##  9 F      POP    Endometrial 30    0.0100
## 10 F      MMR    Endometrial 30    0.580 
## # ... with 70 more rows
…
